STAT 380 Final Project
…
The AI generated a 6 step solution including code that is implemented
below. The steps were: 1. Combine and clean the datasets 2. Determine
whether Map1 or Map2 won the vote 3. Reshape data so each row
corresponds to a map being an option 4. Compute wins and appearances 5.
Print the summary table 6. Visualization

## # A tibble: 46 × 4
##    Map                    appearances  wins win_rate
##    <chr>                        <int> <int>    <dbl>
##  1 Nuketown '84 Halloween           1     1    1    
##  2 Nuketown '84                    39    32    0.821
##  3 Crossroads Strike               58    45    0.776
##  4 Raid                            42    32    0.762
##  5 Standoff                        47    33    0.702
##  6 Diesel                          55    37    0.673
##  7 Slums                           41    27    0.659
##  8 Drive-In                        28    18    0.643
##  9 Express                         62    39    0.629
## 10 Checkmate                       55    34    0.618
## # ℹ 36 more rows
…
